<?xml version="1.0" encoding="utf-8"?>
<!-- Generator: Adobe Illustrator 22.1.0, SVG Export Plug-In . SVG Version: 6.00 Build 0)  -->
<svg version="1.1" id="Layer_1" xmlns="http://www.w3.org/2000/svg" xmlns:xlink="http://www.w3.org/1999/xlink" x="0px" y="0px"
	 viewBox="0 0 350 120" style="enable-background:new 0 0 350 120;" xml:space="preserve">
<style type="text/css">
	.st0{fill:#76593E;}
</style>
<g>
	<path class="st0" d="M127.9,101.7c-0.5,1.2-1.1,2.3-1.9,3.4c-0.8,1.1-1.8,2.1-3,2.9c-1.2,0.8-2.7,1.3-4.4,1.5
		c-3.7,0.5-7.5-0.1-11.3-1.8c-3.8-1.7-7.6-4-11.2-6.9c-3.7-2.9-7.2-6.3-10.7-10.1c-3.5-3.8-6.7-7.6-9.8-11.5
		c-3.1-3.8-5.9-7.5-8.5-11c-2.6-3.5-4.9-6.4-6.9-8.6c3.5-1.7,6.8-4.3,10-7.8c3.1-3.5,5.8-7.5,8-11.9c2.2-4.4,4-9,5.3-13.8
		c1.3-4.8,1.9-9.3,1.8-13.5c-0.1-1.7-0.7-2.9-1.8-3.7c-1.1-0.8-2.2-1.1-3.3-1c-1.4,0.1-2.6,0.7-3.7,1.8c-1.1,1.1-1.7,2.5-1.7,4.5
		c-0.6,8.2-2.3,15.8-5.1,22.8c-2.8,7-7.2,13-13.2,18c-1.8-2.4-3.3-3.8-4.5-4c-1.2-0.2-2.5-0.3-3.7-0.3c1.1-3.7,1.8-7.2,2.2-10.4
		c0.4-3.2,0.6-6.4,0.7-9.5c0.1-5.6-0.5-10.4-1.8-14.2c-1.3-3.8-2.9-6.9-5-9.2C42,5,39.7,3.4,37,2.4c-2.7-1-5.4-1.4-8.1-1.4
		c-4.4,0-8.2,1.2-11.6,3.6C13.9,7,11,10,8.6,13.7c-2.4,3.7-4.2,7.9-5.5,12.5c-1.3,4.6-2,9.2-2.1,13.6C0.8,45.1,2,49.5,4.4,53.2
		C6.9,57,11.1,58.9,17,59c0.8,0,1.7,0,2.5-0.1c0.8-0.1,1.2-0.3,1.2-0.9c0-0.2-0.3-0.3-1-0.4c-0.6-0.1-1.4-0.2-2.2-0.4
		c-3.4-0.7-5.8-2.7-7.2-5.9c-1.4-3.2-2-7-1.8-11.5c0.1-3.9,0.6-8,1.4-12.3c0.8-4.3,2-8.2,3.6-11.7c1.5-3.5,3.4-6.4,5.5-8.6
		C21,5,23.4,3.9,26.2,3.9c3,0,5.4,0.8,7.4,2.3c2,1.5,3.5,3.5,4.6,5.8c1.1,2.3,1.8,5,2.2,8c0.3,3,0.3,5.9,0,8.8
		c-0.5,6.1-1.4,11.9-2.5,17.6C36.6,52,35.4,57.2,34.2,62c-1.3,4.8-2.5,8.9-3.7,12.5c-1.2,3.6-2.1,6.2-2.7,7.9
		c-0.3,1.1-0.6,2.1-0.9,3.1c-0.3,1-0.4,2-0.4,2.9c-0.1,2.1,0.6,4.1,2,6c1.4,1.9,3.2,2.8,5.3,2.8c1.3,0,2.4-1.2,3.4-3.7
		c1-2.5,2-5.5,2.9-9.2c0.9-3.6,1.8-7.4,2.6-11.5c0.8-4,1.8-7.5,2.7-10.5c1.9,1.1,3.8,1.5,5.6,1.4c1.8-0.2,3.1-0.7,4-1.5
		c5.5,8.1,10.6,15.6,15.4,22.7c4.7,7.1,9.4,13.1,14.1,18.2c4.7,5.1,9.5,9,14.5,11.7c5,2.7,10.5,3.8,16.6,3.3
		c2.8-0.2,5.2-0.9,7.3-2.2c2.1-1.2,3.8-2.7,5-4.5c1.2-1.8,2-3.8,2.2-6.1c0.3-2.2-0.1-4.5-1-6.8C128.8,99.4,128.4,100.5,127.9,101.7z
		 M49.9,60.3c-1.5,0.3-2.8,0-3.8-0.7c0.1-0.6,0.3-1.3,0.5-2.1c0.2-0.7,0.4-1.5,0.5-2.4c1.7-0.8,3.1-0.8,4.3,0c1.2,0.8,2,2,2.5,3.5
		C52.7,59.5,51.4,60.1,49.9,60.3z"/>
	<path class="st0" d="M223,93.2c-1,0.7-2.2,1.1-3.4,1.1c-1.4,0-2.3-1.1-2.7-3.3c-0.4-2.2-0.5-4.9-0.2-8c0.3-3.1,1-6.3,2-9.6
		c1-3.3,2.3-6.1,3.7-8.3c0.5-0.5,0.8-1.2,1-2.1c0.1-0.8-0.2-1.9-0.8-3c-1.1-1.2-2.4-1.8-4.1-2c-1.6-0.2-3.1,0.2-4.2,1.2
		c-0.4,0.6-0.7,1.2-0.7,1.7c-0.1,0.5-0.2,0.9-0.6,1.3c-0.3,0.4-0.9,0.7-1.7,0.9c-0.8,0.2-2.2,0.3-4.1,0.2c0.3-1.6,0.5-3.4,0.6-5.5
		c0.1-2.1-0.2-4.1-1-6c-1.1-2.7-2.5-4.2-4.2-4.8c-1.8-0.5-3.4-0.4-4.9,0.3c-1.6,0.6-2.7,1.8-3.4,3.4c-0.7,1.6-1,3.5-0.8,5.4
		c0.2,2,0.8,3.8,2,5.7c1.2,1.8,2.9,3.2,5.1,4.1c0.1,0.2,0.1,0.9,0.1,1.9c-0.1,1.1-0.2,2.3-0.4,3.7c-0.1,0.8-1,2.6-1.1,3
		c-1.9,4.6-4.5,8.1-7.6,10.5c-3.2,2.4-6,3.6-8.4,3.3c-1.6-0.1-2.8-0.7-3.7-1.7c-0.9-1-1.4-2.2-1.5-3.5c-0.2-1.3-0.1-2.7,0.3-4
		c0.4-1.3,0.9-2.5,1.5-3.4c2.1,1.2,4.1,1.5,6.1,1.1c1.9-0.4,3.6-1.3,4.9-2.6c1.4-1.3,2.4-2.9,3.2-4.7c0.7-1.8,1.1-3.6,1-5.3
		c-0.1-1.7-0.6-3.2-1.5-4.4c-1-1.2-2.5-1.8-4.6-1.8c-3.7,0-6.9,1-9.5,3c-2.6,2-4.8,4.6-6.6,7.6c-1.2,2.1-2,4.5-2.6,7.1
		c-0.6,2.6-0.6,5.1-0.2,7.5c0.5,2.4,1.6,4.5,3.3,6.2c1.7,1.8,4.2,2.8,7.6,3.1c0.1,0,0.3,0,0.4,0c-0.5,1.1-1.1,2.1-1.8,2.8
		c-1.2,1.2-2.5,1.9-4,2.1c-1.4,0.2-2.9-0.2-4.3-1c-1.4-0.8-2.6-2-3.6-3.7c-1.4-2.5-2.2-5.3-2.5-8.1c-0.3-2.9-0.3-5.6,0-8.3
		c0.3-2.7,0.8-5.1,1.4-7.2c0.6-2.2,1.1-3.9,1.7-5.2c0.4-1.2,0.2-2.2-0.8-3.1c-1-0.9-2.1-1.6-3.5-2.1c-1.4-0.5-2.8-0.7-4.1-0.6
		c-1.4,0.1-2.3,0.5-2.7,1.2c-0.9,1.4-1.8,3.4-2.8,6.1c-1,2.7-2,5.4-2.9,8.3c-1,2.9-1.8,5.5-2.5,7.8c-0.7,2.3-1.3,3.9-1.6,4.6
		c0.1-1,0.3-2.6,0.6-5c0.3-2.4,0.6-5.2,1-8.4c0.4-3.2,1-6.7,1.6-10.5c0.6-3.8,1.4-7.5,2.2-11.1c0.6-2.8,1.3-5.5,2-8.1
		c1.6,0,3.2,0,4.9,0c3.3-0.1,6.5-0.3,9.3-0.8c2.9-0.5,5.4-1.3,7.6-2.4c2.2-1.1,3.8-2.6,4.6-4.5c0.7-1.8,0.8-3.5,0.3-5
		c-0.5-1.5-1.3-2.8-2.2-3.8c-1-1-1.8-1.7-2.6-2c-0.8-0.3-1-0.2-0.7,0.3c0.4,0.6,0.7,1.4,0.8,2.2c0.1,0.8,0.2,1.4,0.3,1.8
		c0.2,2-0.9,3.6-3.4,4.6c-2.5,1.1-5.7,1.8-9.7,2.2c-2.2,0.2-4.6,0.4-7,0.4c0.5-1.5,1.1-2.9,1.7-4.1c0.5-1.2,0.4-2.2-0.3-3.1
		c-0.7-0.9-1.7-1.6-2.9-2c-1.2-0.4-2.5-0.5-3.7-0.3c-1.3,0.2-2.1,0.9-2.5,1.9c-0.8,2.2-1.6,4.8-2.4,7.5c-3.4-0.2-6.7-0.4-9.9-0.8
		c0.3-0.7,0.6-1.3,0.8-1.7c0.2-0.4,0.4-0.6,0.5-0.8c0.1-0.2,0.2-0.3,0.2-0.4c0.1-0.1,0.1-0.4,0.2-0.8c0.3-1.5-0.2-2.7-1.4-3.5
		c-1.3-0.8-2.5-1.3-3.7-1.3c-1,0-1.8,0.1-2.5,0.2c-0.7,0.2-1.3,0.5-1.8,1c-0.5,0.5-1,1.3-1.5,2.4c-0.5,1.1-1,2.5-1.7,4.5
		c-5.1-0.7-9.7-1.3-13.7-1.7c-4-0.4-7.4-0.5-10.2-0.2c-3.8,0.3-6.6,1-8.3,2.1c-1.7,1.1-2.4,2.3-2.2,3.8c0.2,0.6,0.5,1.2,0.7,1.6
		c0.3,0.4,0.7,0.4,1.2-0.2c0.9-0.6,2.2-1.3,4.1-2c1.9-0.7,3.9-1.1,6.1-1.4c3.6-0.2,7,0,10.3,0.6c3.2,0.6,6.9,1.4,10.9,2.2
		c-0.3,1.7-0.8,4.1-1.5,7.2c-0.7,3.1-1.4,6.6-2.1,10.4c-0.7,3.8-1.2,7.6-1.7,11.6c-0.2,1.5-0.2,3-0.3,4.5c-0.2,0.1-0.4,0.3-0.5,0.6
		c-0.5,2-1.2,4.1-1.9,6.3c-0.7,2.2-1.9,4.2-3.3,6c-1.3,1.6-2.1,2.2-2.5,1.7c-0.4-0.5-0.7-1.2-0.8-2.2c-0.1-0.8-0.1-1.9,0-3
		c0.1-1.2,0.2-2.3,0.3-3.4c0.1-1.1,0.2-2.1,0.4-3c0.2-0.9,0.3-1.6,0.4-2c0.1-0.6,0.2-1.2,0.4-1.8c0.2-0.6,0.2-1.2,0.2-1.8
		c-0.1-0.6-0.3-1.1-0.6-1.4c-0.4-0.4-1-0.7-2-0.9c-1.7-0.2-3.2-0.1-4.5,0.3c-1.3,0.4-2.3,1.6-3.2,3.5c-0.5,1.2-1.2,2.6-1.9,4.2
		c-0.7,1.6-1.5,3.2-2.2,4.8c-0.7,1.5-1.5,2.9-2.2,4.1c-0.7,1.2-1.2,2-1.7,2.5c-0.5,0.5-1,0.6-1.3,0.2c-0.3-0.4-0.4-1.3-0.2-2.8
		c0.4-2.7,1.3-5.7,2.7-9c1.4-3.3,3.3-6.6,5.7-9.6c2-2.5,3.7-3.8,5.2-3.7c1.4,0.1,1.9,1.2,1.4,3.6c-0.1,0.7,0.3,1.1,1.3,1
		c1-0.1,1.9-0.4,2.8-1c0.9-0.6,1.5-1.5,1.7-2.6c0.2-1.1-0.5-2.4-2.1-3.7c-0.9-0.6-2-1.1-3.3-1.4c-1.4-0.3-2.8-0.5-4.3-0.5
		c-1.5,0-2.9,0.2-4.4,0.6c-1.4,0.4-2.6,0.9-3.6,1.5c-1.7,1.3-3.3,3.2-4.9,5.7c-1.5,2.5-2.8,5.3-3.8,8.2c-1,2.9-1.7,5.7-2,8.4
		c-0.3,2.7-0.2,4.8,0.5,6.1c0.4,0.9,1.2,1.6,2.2,2.4c1.1,0.7,2.1,1.2,3.2,1.4c0.8,0.2,1.7,0,2.6-0.7c0.9-0.7,1.6-1.4,2.2-2.2
		c1-1.2,2.1-2.6,3.3-4.2c1.3-1.6,2.2-2.9,2.7-3.7c0.2,1.2,0.5,2.4,0.9,3.7c0.4,1.3,0.9,2.4,1.5,3.5c0.6,1.1,1.5,1.9,2.5,2.6
		c1.1,0.7,2.4,1,4,1c1.7,0,3.3-0.6,4.7-1.7c1.4-1.1,2.7-2.5,3.8-4.2c0.5-0.7,0.9-1.5,1.3-2.3c0.4,1.5,0.9,2.9,1.5,4.1
		c1.2,2.3,3.1,3.7,5.5,4.1c1.7,0.3,3.4,0.3,5,0c1.6-0.3,3.2-1.1,4.6-2.5c0.8-0.7,1.5-1.6,2.2-2.7c0.3,0.8,0.7,1.6,1.4,2.3
		c1,1,2.1,1.7,3.3,2.2c1.2,0.5,2.4,0.7,3.5,0.6c1.1-0.1,1.8-0.4,2.2-1c2.1-6.9,3.7-12.1,4.9-15.7c1.1-3.6,2-6,2.8-7.4
		c0.6-1.1,1.1-1.3,1.3-0.7c0.2,0.6,0.3,1.4,0.2,2.3c-0.2,3.5-0.3,6.9-0.2,10.2c0.1,3.3,0.6,6.3,1.5,9.1c0.7,2.2,1.8,4.3,3.3,6.2
		c1.4,1.9,3.1,3.4,4.9,4.6c1.8,1.2,3.7,1.9,5.7,2.3c2,0.4,4,0.1,5.9-0.7c1.7-0.7,2.8-1.9,3.4-3.3c0.6-1.5,0.8-2.9,0.8-4.2
		c0-0.5-0.1-0.9-0.1-1.3c4.2-0.1,7.7-2,11.5-4.4c5.1-3.3,9-11.9,9.6-13.5c0.6-1.6,1.1-4.3,1.7-8c1.2-0.1,2-0.1,2.6-0.1
		c0.6,0.1,1.5,0,2.6-0.2c-0.7,1.5-1.4,3.6-1.8,6.4c-0.5,2.8-0.8,5.6-1,8.4c-0.1,1.7-0.1,3.5,0.1,5.3c0.2,1.9,0.6,3.6,1.3,5.3
		c0.7,1.7,1.7,3.1,3,4.3c1.3,1.2,3.1,1.9,5.3,2.1c0.8,0.1,1.8,0.1,2.9-0.2c1.1-0.2,2.1-0.7,3-1.4c1-0.7,1.8-1.9,2.5-3.3
		c0.7-1.5,1.1-3.5,1.2-6.1c-0.8,1.5-1.6,2.7-2.3,3.6C224.8,91.7,224,92.5,223,93.2z M182.2,69.8c0.5-1.1,1.1-2.2,1.9-3.3
		c0.8-1.1,1.7-2.1,2.6-2.9c1-0.8,1.8-1.1,2.4-0.9c1,0.4,1.4,1.3,1.3,2.6c-0.1,1.3-0.6,2.6-1.4,3.9c-0.8,1.3-1.8,2.3-3.1,2.9
		c-1.3,0.7-2.5,0.6-3.8-0.4C181.7,71.6,181.7,70.9,182.2,69.8z M135.1,84.9c-1.8,2.5-3.3,3.6-4.6,3.4c-1.3-0.2-2.1-1.5-2.5-3.7
		c-0.4-2.3-0.5-5-0.3-8.3c0.2-3.2,0.6-6.8,1.2-10.6c0.6-3.8,1.2-7.4,2-10.8c0.7-3.4,1.5-6.4,2.3-8.9c0.8-2.5,1.4-4.2,1.8-4.9
		c1.5,0.2,3.6,0.5,6.2,0.8c1.2,0.1,2.4,0.3,3.6,0.4c-0.6,2.4-1.1,4.8-1.6,7.3c-0.8,3.9-1.5,7.9-2.1,11.8c-0.6,3.9-1.1,7.6-1.5,10.9
		c0,0.3-0.1,0.5-0.1,0.8c-0.2,0.1-0.4,0.2-0.4,0.4C138.3,78.5,136.9,82.4,135.1,84.9z M201.1,52c0.3,0,0.6,0.4,0.9,1.1
		c0.3,0.7,0.5,1.6,0.8,2.5c0.3,0.9,0.4,1.7,0.5,2.5c0.1,0.7,0,1.1-0.2,1.1c-0.2,0-0.5-0.4-0.8-1.1c-0.3-0.7-0.6-1.6-0.8-2.5
		c-0.2-0.9-0.4-1.7-0.5-2.5C200.8,52.3,200.8,52,201.1,52z"/>
	<path class="st0" d="M311.8,73.8c-0.4-0.2-0.8-0.3-1.3-0.4c-0.5-0.1-1,0-1.4,0.1c-0.5,0.1-0.8,0.4-1,1c-1.9,4.6-4.5,8.1-7.6,10.5
		c-3.2,2.4-6,3.6-8.4,3.3c-1.6-0.1-2.8-0.7-3.7-1.7c-0.9-1-1.4-2.2-1.5-3.5c-0.2-1.3-0.1-2.7,0.3-4c0.4-1.3,0.9-2.5,1.5-3.4
		c2.1,1.2,4.1,1.5,6.1,1.1c1.9-0.4,3.6-1.3,4.9-2.6c1.4-1.3,2.4-2.9,3.2-4.7c0.7-1.8,1.1-3.6,1-5.3c-0.1-1.7-0.6-3.2-1.5-4.4
		c-1-1.2-2.5-1.8-4.6-1.8c-3.7,0-6.9,1-9.5,3c-2.6,2-4.8,4.6-6.6,7.6c-1.2,2.1-2,4.5-2.6,7.1c-0.6,2.6-0.6,5.1-0.2,7.5
		c0.5,2.4,1.6,4.5,3.3,6.2c1,1,2.3,1.8,3.9,2.3c-1.2,1-2.7,1.7-4.4,2.1c-1.8,0.4-3.4,0.1-4.8-1.1c-2-1.6-3.2-4.7-3.6-9.5
		c-0.4-4.7,0.7-10.7,3.3-17.9c0.7-1.3,0.6-2.5-0.4-3.6c-1-1.1-2.3-2-3.8-2.6c-1.5-0.6-3.1-1-4.7-1c-1.6-0.1-2.7,0.3-3.2,1.2
		c-1,1.5-2,3.7-3,6.6c-1.1,2.9-2,5.9-2.9,8.8c-0.9,3-1.7,5.7-2.3,8.1c-0.6,2.4-1.1,4-1.4,4.6c0-0.6,0-1.8,0.1-3.5
		c0.1-1.7,0.2-3.6,0.4-5.7c0.2-2.1,0.6-4.1,1-6.2c0.5-2.1,1.2-3.8,2.2-5.2c0.7-1.1,0.8-2.1,0.1-3c-0.7-1-1.7-1.7-2.9-2.3
		c-1.3-0.6-2.5-0.9-3.7-1c-1.2-0.1-1.9,0.3-2.2,1c-0.3,1-0.7,2.6-1.2,4.9c-0.5,2.3-0.9,4.8-1.4,7.4c-0.3,2-0.6,4-0.8,5.9
		c-0.5,1.5-1.1,2.9-1.8,4.1c-0.8,1.4-1.7,2.4-2.8,3.1c-1.1,0.7-2.3,0.9-3.7,0.6c-1.5-0.3-2.3-1.7-2.5-4.1c-0.2-2.4,0-5,0.4-8
		c0.4-2.9,1-5.7,1.8-8.3c0.7-2.6,1.3-4.3,1.6-5.2c0.3-1,0.1-1.7-0.8-2.2c-0.9-0.5-1.9-0.8-3-0.9c-1.2-0.1-2.3,0-3.5,0.2
		c-1.2,0.3-1.9,0.7-2.1,1.4c-0.6,1.7-1.3,3.9-1.9,6.7c-0.6,2.8-1,5.6-1.2,8.5c-0.2,2.9,0,5.7,0.6,8.3c0.5,2.6,1.6,4.6,3.2,6
		c1.1,0.9,2.2,1.5,3.3,1.8c1.1,0.4,2.5,0.6,4.1,0.6c2.2,0,4.2-0.6,6-1.8c0.9-0.7,1.8-1.4,2.5-2.2c0.3,0.3,0.6,0.7,1,1
		c1,0.9,2.2,1.5,3.4,2.1c1.3,0.5,2.5,0.9,3.7,1c1.2,0.1,1.9-0.1,2.1-0.6c1.7-6.5,3.3-11.3,4.8-14.5c1.5-3.2,2.7-5.5,3.7-7
		c0.7-1.2,1.1-1.5,1.2-1c0.1,0.5,0,1.4-0.2,2.5c-0.2,2.5-0.3,5.2-0.4,7.9c-0.1,2.7,0.2,5.3,0.8,7.7c0.6,2.4,1.6,4.6,3,6.5
		c1.4,1.9,3.5,3.1,6.3,3.7c1.8,0.6,3.4,0.6,4.9,0c1.4-0.6,2.6-1.5,3.6-2.5c1-1,1.6-1.9,2-2.8c0.1-0.3,0.2-0.5,0.3-0.7
		c1,0.3,2.2,0.6,3.5,0.7c5.1,0.4,9.7-1,13.9-4.4c4.1-3.3,7.1-7.9,8.8-13.8C312.4,74.2,312.2,74,311.8,73.8z M291,69.8
		c0.5-1.1,1.1-2.2,1.9-3.3c0.8-1.1,1.7-2.1,2.6-2.9c1-0.8,1.8-1.1,2.4-0.9c1,0.4,1.4,1.3,1.3,2.6c-0.1,1.3-0.6,2.6-1.4,3.9
		c-0.8,1.3-1.8,2.3-3.1,2.9c-1.3,0.7-2.5,0.6-3.8-0.4C290.5,71.6,290.5,70.9,291,69.8z"/>
	<path class="st0" d="M313.8,37.6c0.3,0.1,0.7,0.1,1,0c0.4-0.1,0.7-0.2,1-0.3c1.3-0.6,2.4-1.5,3.5-2.6c1.1-1.1,1.9-2.3,2.5-3.7
		c0.6-1.3,1.1-2.7,1.4-4.1c0.3-1.4,0.3-2.7,0.2-4c0-1.4-0.4-2.5-1.2-3.3c-0.8-0.8-1.7-1.3-2.6-1.4c-1-0.1-1.8,0.2-2.5,0.8
		c-0.7,0.6-1,1.6-0.9,3c0.2,1.6,0.3,3.4,0.3,5.5c0,2.1-0.9,4.5-2.5,7.2c-0.5,1-0.8,1.6-0.8,2.1C313.3,37.3,313.5,37.5,313.8,37.6z"
		/>
	<path class="st0" d="M348.1,62.6c-0.8-1.1-2.3-1.6-4.5-1.5c-1.2,0.1-2.4,0.3-3.8,0.6c-1.4,0.3-2.7,0.7-3.9,1
		c-1.2,0.4-2.3,0.8-3.3,1.2c-1,0.4-1.6,0.7-1.9,1c-0.2-2-0.4-3.9-0.5-5.7c-0.1-1.8,0.3-3.2,1.1-4.1l3.2-3.2c0.6-0.6,0.6-1.4-0.1-2.2
		c-0.7-0.8-1.6-1.5-2.9-2c-1.2-0.5-2.5-0.7-3.9-0.6c-1.4,0.1-2.5,0.6-3.5,1.7c-2.1,2.5-3.3,4.9-3.6,7.1c-0.3,2.2-0.2,4.2,0.1,6.1
		c0.3,1.9,0.5,3.6,0.6,5.1c0.1,1.5-0.7,2.8-2.2,3.9c-1.5,1.2-2.9,2.8-4.3,5c-1.4,2.2-2.4,4.5-3,6.8c-0.6,2.4-0.7,4.7-0.3,6.9
		c0.4,2.2,1.7,3.9,3.8,4.9c1.6,0.9,3.6,1.1,6,0.6c2.4-0.4,4.6-1.7,6.6-3.8c1.1-1.2,1.9-2.6,2.5-4.4c0.6-1.8,1-3.6,1.2-5.6
		c0.2-2,0.3-3.9,0.2-5.9c-0.1-2-0.3-3.7-0.6-5.2c-0.1-0.5,0.6-1.1,2-1.8c1.4-0.7,3.1-1.2,5-1.6c1.9-0.4,3.7-0.5,5.4-0.3
		c1.7,0.2,2.8,0.8,3.3,1.8c0.4,1.1,0.9,1.2,1.5,0.6c0.6-0.7,0.9-1.6,1-2.9C349.3,64.8,348.9,63.7,348.1,62.6z M321.6,84
		c-0.5,2.9-1.3,4.8-2.2,5.7c-0.9,1-1.7,1.2-2.5,0.9c-0.7-0.4-1.3-1.3-1.6-2.7c-0.3-1.4-0.2-3.2,0.3-5.2c0.6-2.4,1.5-4.3,2.5-5.5
		c1-1.2,2.1-2.5,3.3-3.7c0.3,1,0.5,2.4,0.6,4.5C322.2,79.9,322,82,321.6,84z"/>
</g>
<path class="st0" d="M260.4,24.1c-2.5-3.5-8.4-2.7-11.8-1.6c-1.6,0.5-3.1,1.3-4.5,2.2c-0.9-1.9-2.3-3.5-4.3-4.2
	c-4.5-1.6-9.2,1.5-11.3,5.3c-2.7,4.9-2.2,10.2-0.6,15.3c1.2,3.8,3.1,9.5,7,11.2c3,1.3,8.8-3,4.4-4.9c-1.2-0.5-2.5-4.6-2.9-5.7
	c-1.2-2.9-2.2-6.1-2.3-9.2c0-1.3,0.9-6.8,1.7-6.8c0.7,0,2.1,5.5,2.1,6.7c0.2,4.1,6.7,2.2,7.6-0.6c0.6-2,5.6-6.8,7.8-4.3
	c1.1,1.2-0.3,5-0.7,6.2C251,38.5,246,40.3,242,43c-4.2,2.9,2,5.2,5,3.2c4.5-3,9.8-5.2,12.4-10.2C260.9,32.9,262.8,27.4,260.4,24.1z"
	/>
</svg>
