<?xml version="1.0" encoding="utf-8"?>
<!-- Generator: Adobe Illustrator 22.0.1, SVG Export Plug-In . SVG Version: 6.00 Build 0)  -->
<svg version="1.1" id="Layer_1" xmlns="http://www.w3.org/2000/svg" xmlns:xlink="http://www.w3.org/1999/xlink" x="0px" y="0px"
	 viewBox="0 0 504 504" style="enable-background:new 0 0 504 504;" xml:space="preserve">
<style type="text/css">
	.st0{fill:#75583E;}
	.st1{fill:#FDD7B1;}
</style>
<g>
	<g>
		<path class="st0" d="M377.6,0H126C56.8,0,0,56.8,0,126.4V378c0,69.2,56.8,126,126,126h251.6c69.6,0,126.4-56.8,126.4-126.4V126.4
			C504,56.8,447.2,0,377.6,0z"/>
	</g>
</g>
<path class="st1" d="M389.6,181.9c0.2,2,0.3,5.1,0.3,9.1c0,18.9-2.8,37.8-8.3,56.8s-13.9,37.2-25.3,54.7
	c-11.4,17.4-24.9,32.8-40.6,46.2c-15.7,13.4-34.6,24.1-56.7,32c-22,8-45.7,12-70.8,12c-39.1,0-75.3-10.6-108.6-31.7
	c5.4,0.7,11,1,16.9,1c32.6,0,62-10.1,88.1-30.4c-15.3-0.2-29-4.9-41-14.2c-12-9.2-20.4-20.9-25.1-35.1c5.8,0.9,10.2,1.3,13.2,1.3
	c4.9,0,10.7-0.9,17.2-2.7c-16.4-3.2-30.2-11.3-41.5-24.5c-11.2-13.2-16.9-28.2-16.9-45v-0.7c11.9,5.6,23.2,8.5,33.7,8.8
	c-20.5-13.7-30.7-33.4-30.7-59c0-12.6,3.3-24.5,9.8-35.8c17.8,21.8,39.4,39.2,64.8,52.3c25.4,13,52.6,20.4,81.6,21.9
	c-1.1-4.3-1.7-9.7-1.7-16.2c0-19.6,6.9-36.3,20.7-50.1c13.8-13.8,30.5-20.8,50.1-20.8c20.7,0,37.9,7.4,51.6,22.3
	c15.5-2.9,30.6-8.7,45.2-17.2c-5.6,17.3-16.1,30.5-31.4,39.5c14.6-2,28.2-5.8,40.8-11.5C415.6,159.5,403.7,171.8,389.6,181.9z"/>
</svg>
